/home/denis/app/anaconda3/envs/cifar10-fast/bin/python /home/denis/app/pycharm-community-2019.1.3/helpers/pydev/pydevd.py --multiproc --qt-support=auto --client 127.0.0.1 --port 34689 --file /home/denis/src/cifar10-fast/prunetrain_small_test.py --arch=vgg8 --prune_freq=100 --lasso_penalty_ratio=100
pydev debugger: process 25447 is connecting

Connected to pydev debugger (build 191.8026.44)
Downloading datasets
Files already downloaded and verified
Files already downloaded and verified
Warming up cudnn on random inputs
stage1_block0_conv1	Conv2d	torch.Size([1, 64, 32, 32])
stage1_block0_bn1	BatchNorm2d	torch.Size([1, 64, 32, 32])
stage1_block0_relu1	ReLU	torch.Size([1, 64, 32, 32])
stage1_maxpool0	MaxPool2d	torch.Size([1, 64, 16, 16])
stage2_block0_conv1	Conv2d	torch.Size([1, 128, 16, 16])
stage2_block0_bn1	BatchNorm2d	torch.Size([1, 128, 16, 16])
stage2_block0_relu1	ReLU	torch.Size([1, 128, 16, 16])
stage2_maxpool0	MaxPool2d	torch.Size([1, 128, 8, 8])
stage3_block0_conv1	Conv2d	torch.Size([1, 256, 8, 8])
stage3_block0_bn1	BatchNorm2d	torch.Size([1, 256, 8, 8])
stage3_block0_relu1	ReLU	torch.Size([1, 256, 8, 8])
stage3_maxpool0	MaxPool2d	torch.Size([1, 256, 4, 4])
stage4_block0_conv1	Conv2d	torch.Size([1, 512, 4, 4])
stage4_block0_bn1	BatchNorm2d	torch.Size([1, 512, 4, 4])
stage4_block0_relu1	ReLU	torch.Size([1, 512, 4, 4])
stage4_maxpool0	MaxPool2d	torch.Size([1, 512, 2, 2])
stage5_block0_conv1	Conv2d	torch.Size([1, 512, 2, 2])
stage5_block0_bn1	BatchNorm2d	torch.Size([1, 512, 2, 2])
stage5_block0_relu1	ReLU	torch.Size([1, 512, 2, 2])
stage5_maxpool0	MaxPool2d	torch.Size([1, 512, 1, 1])
final_flatten	FlattenDim	torch.Size([1, 512])
final_fc	Linear	torch.Size([1, 10])
classifier	Identity	torch.Size([1, 10])
loss	<class 'torch.nn.modules.loss.CrossEntropyLoss'>	forward() missing 1 required positional argument: 'target'
correct	<class 'torch_backend.Correct'>	forward() missing 1 required positional argument: 'target'
Starting timer
Preprocessing training data
Finished in 1.1 seconds
Preprocessing test data
Finished in 0.036 seconds
       epoch           lr   train time   train loss    train acc    test time    test loss     test acc   total time  train lasso   loss+lasso   prune time     channels     sparsity
           1       0.2400       7.9557       1.9047       0.3128       0.4843       1.4585       0.4772       8.4399       0.0000       1.9034       0.0000         4419       0.0000
           2       0.4800       7.3556       1.3656       0.5124       0.4928       1.1960       0.5646      16.2883       0.0000       1.3651       0.0000         4419       0.0000
           3       0.7200       7.3960       1.1382       0.5945       0.4940       0.9842       0.6518      24.1784       0.0000       1.1375       0.0000         4419       0.0000
           4       0.9600       7.4071       1.0040       0.6439       0.4970       0.9436       0.6668      32.0825       0.0000       1.0036       0.0000         4419       0.0000
           5       1.2000       7.4146       0.9132       0.6774       0.4958       0.8820       0.6865      39.9928       0.0000       0.9125       0.0000         4419       0.0000
           6       1.4400       7.4153       0.8396       0.7029       0.4928       0.8907       0.6907      47.9008       0.0000       0.8394       0.0000         4419       0.0000
           7       1.6800       7.4120       0.7901       0.7211       0.5071       0.7562       0.7413      55.8199       0.0000       0.7897       0.0000         4419       0.0000
           8       1.9200       7.4962       0.7425       0.7385       0.4958       0.7076       0.7534      63.8119       0.0000       0.7424       0.0000         4419       0.0000
           9       2.1600       7.5288       0.7111       0.7500       0.5268       0.6393       0.7751      71.8674       0.0000       0.7105       0.0000         4419       0.0000
          10       2.4000       7.5795       0.6833       0.7589       0.4980       0.7288       0.7546      79.9450       0.0000       0.6839       0.0000         4419       0.0000
          11       2.6400       7.5258       0.6599       0.7682       0.5018       0.6401       0.7790      87.9727       0.0000       0.6600       0.0000         4419       0.0000
          12       2.8800       7.6390       0.6314       0.7775       0.5046       0.7123       0.7520      96.1163       0.0000       0.6312       0.0000         4419       0.0000
          13       3.1200       7.5351       0.6157       0.7829       0.4985       0.5771       0.7982     104.1499       0.0000       0.6150       0.0000         4419       0.0000
          14       3.3600       7.5717       0.5911       0.7929       0.5033       0.5861       0.7945     112.2249       0.0000       0.5909       0.0000         4419       0.0000
          15       3.6000       7.5611       0.5755       0.8001       0.5093       0.6491       0.7862     120.2953       0.0000       0.5756       0.0000         4419       0.0000
          16       3.8400       7.6191       0.5560       0.8052       0.5007       0.6209       0.7897     128.4152       0.0000       0.5564       0.0000         4419       0.0000
          17       4.0800       7.6646       0.5441       0.8095       0.4981       0.5593       0.8082     136.5779       0.0000       0.5443       0.0000         4419       0.0000
          18       4.3200       7.4789       0.5287       0.8137       0.4991       0.6435       0.7845     144.5558       0.0000       0.5291       0.0000         4419       0.0000
          19       4.5600       7.7147       0.5144       0.8186       0.5022       0.6316       0.7873     152.7726       0.0000       0.5143       0.0000         4419       0.0000
          20       4.8000       7.4737       0.5016       0.8265       0.4994       0.6214       0.7939     160.7458       0.0000       0.5021       0.0000         4419       0.0000
          21       4.6176       7.4731       0.4858       0.8309       0.5018       0.6997       0.7738     168.7207       0.0000       0.4861       0.0000         4419       0.0000
          22       4.4352       7.6582       0.4651       0.8363       0.4992       0.4708       0.8382     176.8780       0.0000       0.4661       0.0000         4419       0.0000
          23       4.2528       7.4730       0.4442       0.8433       0.4994       0.5408       0.8201     184.8504       0.0000       0.4444       0.0000         4419       0.0000
          24       4.0704       7.6948       0.4283       0.8511       0.5148       0.4765       0.8349     193.0600       0.0000       0.4281       0.0000         4419       0.0000
          25       3.8880       7.5797       0.4129       0.8545       0.4995       0.4429       0.8487     201.1391       0.0000       0.4134       0.0000         4419       0.0000
          26       3.7056       7.7834       0.4007       0.8596       0.4984       0.4606       0.8431     209.4209       0.0000       0.4007       0.0000         4419       0.0000
          27       3.5232       7.5509       0.3812       0.8657       0.5094       0.4722       0.8425     217.4813       0.0000       0.3811       0.0000         4419       0.0000
          28       3.3408       7.6115       0.3695       0.8713       0.5018       0.4089       0.8610     225.5946       0.0000       0.3695       0.0000         4419       0.0000
          29       3.1584       7.5014       0.3587       0.8751       0.5012       0.4805       0.8433     233.5972       0.0000       0.3586       0.0000         4419       0.0000
          30       2.9760       7.6505       0.3404       0.8802       0.5091       0.4068       0.8642     241.7568       0.0000       0.3405       0.0000         4419       0.0000
          31       2.7936       7.5985       0.3298       0.8845       0.5182       0.4172       0.8631     249.8735       0.0000       0.3298       0.0000         4419       0.0000
          32       2.6112       7.6850       0.3155       0.8892       0.5000       0.4081       0.8660     258.0585       0.0000       0.3151       0.0000         4419       0.0000
          33       2.4288       7.4946       0.3020       0.8946       0.4993       0.4068       0.8608     266.0524       0.0000       0.3018       0.0000         4419       0.0000
          34       2.2464       7.4777       0.3009       0.8938       0.5005       0.3871       0.8711     274.0305       0.0000       0.3008       0.0000         4419       0.0000
          35       2.0640       7.6399       0.2847       0.8992       0.5005       0.3833       0.8705     282.1709       0.0000       0.2846       0.0000         4419       0.0000
          36       1.8816       7.6667       0.2711       0.9061       0.5224       0.3591       0.8800     290.3601       0.0000       0.2719       0.0000         4419       0.0000
          37       1.6992       7.6836       0.2567       0.9100       0.5031       0.3779       0.8736     298.5468       0.0000       0.2565       0.0000         4419       0.0000
          38       1.5168       7.5384       0.2488       0.9138       0.4996       0.3607       0.8787     306.5848       0.0000       0.2485       0.0000         4419       0.0000
          39       1.3344       7.4780       0.2365       0.9172       0.4988       0.3493       0.8849     314.5616       0.0000       0.2367       0.0000         4419       0.0000
          40       1.1520       7.6719       0.2288       0.9191       0.5150       0.3621       0.8792     322.7486       0.0000       0.2294       0.0000         4419       0.0000
          41       0.9696       7.5853       0.2195       0.9239       0.5389       0.3429       0.8863     330.8727       0.0000       0.2194       0.0000         4419       0.0000
          42       0.7872       7.6603       0.2092       0.9289       0.4996       0.3370       0.8900     339.0326       0.0000       0.2093       0.0000         4419       0.0000
          43       0.6048       7.4891       0.1964       0.9334       0.5002       0.3424       0.8893     347.0219       0.0000       0.1963       0.0000         4419       0.0000
          44       0.4224       7.5411       0.1925       0.9329       0.4990       0.3330       0.8905     355.0620       0.0000       0.1924       0.0000         4419       0.0000
          45       0.2400       7.6057       0.1834       0.9378       0.5000       0.3260       0.8939     363.1677       0.0000       0.1832       0.0000         4419       0.0000
          46       0.1920       7.4810       0.1755       0.9400       0.5013       0.3232       0.8943     371.1500       0.0000       0.1755       0.0000         4419       0.0000
          47       0.1440       7.5518       0.1715       0.9421       0.5007       0.3214       0.8944     379.2025       0.0000       0.1713       0.0000         4419       0.0000
          48       0.0960       7.5575       0.1696       0.9424       0.5005       0.3219       0.8943     387.2606       0.0000       0.1696       0.0000         4419       0.0000
          49       0.0480       7.5645       0.1696       0.9426       0.4991       0.3209       0.8947     395.3242       0.0000       0.1696       0.0000         4419       0.0000
          50       0.0000       7.4887       0.1689       0.9433       0.5039       0.3216       0.8945     403.3168       0.0000       0.1687       0.0000         4419       0.0000

Process finished with exit code 0

