/home/denis/app/anaconda3/envs/cifar10-fast/bin/python /home/denis/app/pycharm-community-2019.1.3/helpers/pydev/pydevd.py --multiproc --qt-support=auto --client 127.0.0.1 --port 35333 --file /home/denis/src/cifar10-fast/prunetrain_small_test.py --arch=vgg8 --prune_freq=100 --lasso_penalty_ratio=100
pydev debugger: process 25662 is connecting

Connected to pydev debugger (build 191.8026.44)
Downloading datasets
Files already downloaded and verified
Files already downloaded and verified
Warming up cudnn on random inputs
stage1_block0_conv1	Conv2d	torch.Size([1, 64, 32, 32])
stage1_block0_bn1	BatchNorm2d	torch.Size([1, 64, 32, 32])
stage1_block0_relu1	ReLU	torch.Size([1, 64, 32, 32])
stage1_maxpool0	MaxPool2d	torch.Size([1, 64, 16, 16])
stage2_block0_conv1	Conv2d	torch.Size([1, 128, 16, 16])
stage2_block0_bn1	BatchNorm2d	torch.Size([1, 128, 16, 16])
stage2_block0_relu1	ReLU	torch.Size([1, 128, 16, 16])
stage2_maxpool0	MaxPool2d	torch.Size([1, 128, 8, 8])
stage3_block0_conv1	Conv2d	torch.Size([1, 256, 8, 8])
stage3_block0_bn1	BatchNorm2d	torch.Size([1, 256, 8, 8])
stage3_block0_relu1	ReLU	torch.Size([1, 256, 8, 8])
stage3_maxpool0	MaxPool2d	torch.Size([1, 256, 4, 4])
stage4_block0_conv1	Conv2d	torch.Size([1, 512, 4, 4])
stage4_block0_bn1	BatchNorm2d	torch.Size([1, 512, 4, 4])
stage4_block0_relu1	ReLU	torch.Size([1, 512, 4, 4])
stage4_maxpool0	MaxPool2d	torch.Size([1, 512, 2, 2])
stage5_block0_conv1	Conv2d	torch.Size([1, 512, 2, 2])
stage5_block0_bn1	BatchNorm2d	torch.Size([1, 512, 2, 2])
stage5_block0_relu1	ReLU	torch.Size([1, 512, 2, 2])
stage5_maxpool0	MaxPool2d	torch.Size([1, 512, 1, 1])
final_flatten	FlattenDim	torch.Size([1, 512])
final_fc	Linear	torch.Size([1, 10])
classifier	Identity	torch.Size([1, 10])
loss	<class 'torch.nn.modules.loss.CrossEntropyLoss'>	forward() missing 1 required positional argument: 'target'
correct	<class 'torch_backend.Correct'>	forward() missing 1 required positional argument: 'target'
Starting timer
Preprocessing training data
Finished in 1.1 seconds
Preprocessing test data
Finished in 0.039 seconds
       epoch           lr   train time   train loss    train acc    test time    test loss     test acc   total time  train lasso   loss+lasso   prune time     channels     sparsity
           1       0.3200       8.2346       1.8578       0.3320       0.4882       1.4211       0.4893       8.7228       0.0000       1.8568       0.0000         4419       0.0000
           2       0.6400       7.3854       1.3190       0.5291       0.4941       1.1443       0.5934      16.6023       0.0000       1.3194       0.0000         4419       0.0000
           3       0.9600       7.4027       1.0934       0.6107       0.4940       0.9496       0.6631      24.4991       0.0000       1.0932       0.0000         4419       0.0000
           4       1.2800       7.4109       0.9631       0.6580       0.4954       0.9238       0.6776      32.4054       0.0000       0.9628       0.0000         4419       0.0000
           5       1.6000       7.4180       0.8811       0.6887       0.4958       0.9046       0.6890      40.3192       0.0000       0.8805       0.0000         4419       0.0000
           6       1.9200       7.4383       0.8172       0.7109       0.4948       0.8194       0.7141      48.2523       0.0000       0.8175       0.0000         4419       0.0000
           7       2.2400       7.4308       0.7687       0.7297       0.4954       0.8204       0.7144      56.1785       0.0000       0.7684       0.0000         4419       0.0000
           8       2.5600       7.4394       0.7346       0.7420       0.4963       0.7412       0.7384      64.1142       0.0000       0.7344       0.0000         4419       0.0000
           9       2.8800       7.4395       0.6938       0.7569       0.4952       0.6953       0.7614      72.0489       0.0000       0.6936       0.0000         4419       0.0000
          10       3.2000       7.4490       0.6676       0.7670       0.4947       0.7609       0.7416      79.9925       0.0000       0.6676       0.0000         4419       0.0000
          11       3.5200       7.7056       0.6418       0.7752       0.5308       0.8570       0.7162      88.2290       0.0000       0.6420       0.0000         4419       0.0000
          12       3.8400       7.5271       0.6221       0.7805       0.4991       0.7801       0.7363      96.2551       0.0000       0.6222       0.0000         4419       0.0000
          13       4.1600       7.4715       0.6020       0.7902       0.5001       0.7715       0.7512     104.2267       0.0000       0.6017       0.0000         4419       0.0000
          14       4.4800       7.4736       0.5844       0.7954       0.4992       0.6978       0.7641     112.1996       0.0000       0.5854       0.0000         4419       0.0000
          15       4.8000       7.4748       0.5647       0.8030       0.4973       0.6548       0.7800     120.1716       0.0000       0.5647       0.0000         4419       0.0000
          16       5.1200       7.4686       0.5504       0.8074       0.4994       0.6726       0.7724     128.1396       0.0000       0.5508       0.0000         4419       0.0000
          17       5.4400       7.4772       0.5365       0.8136       0.4999       0.5325       0.8175     136.1167       0.0000       0.5367       0.0000         4419       0.0000
          18       5.7600       7.4777       0.5134       0.8204       0.4989       0.7036       0.7640     144.0933       0.0000       0.5135       0.0000         4419       0.0000
          19       6.0800       7.4760       0.5052       0.8228       0.4996       0.5524       0.8175     152.0689       0.0000       0.5051       0.0000         4419       0.0000
          20       6.4000       7.4827       0.4909       0.8269       0.5018       0.6023       0.7978     160.0534       0.0000       0.4911       0.0000         4419       0.0000
          21       6.1568       7.4803       0.4755       0.8336       0.4997       0.5304       0.8193     168.0335       0.0000       0.4761       0.0000         4419       0.0000
          22       5.9136       7.4818       0.4547       0.8402       0.5009       0.5063       0.8253     176.0162       0.0000       0.4545       0.0000         4419       0.0000
          23       5.6704       7.5311       0.4313       0.8495       0.4998       0.4913       0.8359     184.0471       0.0000       0.4314       0.0000         4419       0.0000
          24       5.4272       7.4811       0.4147       0.8543       0.5015       0.5010       0.8321     192.0297       0.0000       0.4141       0.0000         4419       0.0000
          25       5.1840       7.4846       0.3991       0.8600       0.4991       0.4234       0.8539     200.0133       0.0000       0.3992       0.0000         4419       0.0000
          26       4.9408       7.4851       0.3825       0.8660       0.4998       0.4889       0.8363     207.9983       0.0000       0.3825       0.0000         4419       0.0000
          27       4.6976       7.4903       0.3741       0.8707       0.4996       0.5133       0.8331     215.9881       0.0000       0.3740       0.0000         4419       0.0000
          28       4.4544       7.4818       0.3624       0.8725       0.5025       0.4176       0.8586     223.9724       0.0000       0.3621       0.0000         4419       0.0000
          29       4.2112       7.4855       0.3429       0.8791       0.4993       0.5137       0.8377     231.9573       0.0000       0.3429       0.0000         4419       0.0000
          30       3.9680       7.5633       0.3332       0.8841       0.4988       0.4345       0.8558     240.0194       0.0000       0.3333       0.0000         4419       0.0000
          31       3.7248       7.4943       0.3162       0.8891       0.5011       0.4057       0.8605     248.0147       0.0000       0.3161       0.0000         4419       0.0000
          32       3.4816       7.4847       0.3041       0.8934       0.5000       0.3936       0.8715     255.9995       0.0000       0.3044       0.0000         4419       0.0000
          33       3.2384       7.5714       0.2941       0.8977       0.4998       0.3956       0.8659     264.0707       0.0000       0.2943       0.0000         4419       0.0000
          34       2.9952       7.7814       0.2819       0.9016       0.4993       0.4018       0.8681     272.3515       0.0000       0.2820       0.0000         4419       0.0000
          35       2.7520       7.6837       0.2712       0.9036       0.5037       0.3600       0.8782     280.5388       0.0000       0.2716       0.0000         4419       0.0000
          36       2.5088       7.4951       0.2595       0.9080       0.4996       0.3590       0.8805     288.5335       0.0000       0.2598       0.0000         4419       0.0000
          37       2.2656       7.4853       0.2444       0.9149       0.4994       0.3402       0.8855     296.5182       0.0000       0.2444       0.0000         4419       0.0000
          38       2.0224       7.4906       0.2344       0.9189       0.5002       0.3390       0.8853     304.5090       0.0000       0.2349       0.0000         4419       0.0000
          39       1.7792       7.5387       0.2209       0.9229       0.5363       0.3399       0.8888     312.5840       0.0000       0.2211       0.0000         4419       0.0000
          40       1.5360       7.6110       0.2136       0.9265       0.5035       0.3306       0.8916     320.6986       0.0000       0.2138       0.0000         4419       0.0000
          41       1.2928       7.4960       0.1971       0.9335       0.5002       0.3369       0.8896     328.6947       0.0000       0.1970       0.0000         4419       0.0000
          42       1.0496       7.8137       0.1877       0.9364       0.5005       0.3284       0.8932     337.0089       0.0000       0.1879       0.0000         4419       0.0000
          43       0.8064       7.6836       0.1786       0.9398       0.5074       0.3189       0.8970     345.1998       0.0000       0.1786       0.0000         4419       0.0000
          44       0.5632       7.6907       0.1722       0.9414       0.5384       0.3142       0.8959     353.4289       0.0000       0.1722       0.0000         4419       0.0000
          45       0.3200       7.7576       0.1629       0.9436       0.5000       0.3105       0.8973     361.6865       0.0000       0.1631       0.0000         4419       0.0000
          46       0.2560       7.5577       0.1554       0.9465       0.4996       0.3052       0.8984     369.7438       0.0000       0.1554       0.0000         4419       0.0000
          47       0.1920       7.5559       0.1534       0.9478       0.5010       0.3053       0.9000     377.8008       0.0000       0.1535       0.0000         4419       0.0000
          48       0.1280       7.4995       0.1501       0.9498       0.5043       0.3033       0.9001     385.8046       0.0000       0.1503       0.0000         4419       0.0000
          49       0.0640       7.4969       0.1487       0.9502       0.5013       0.3028       0.9006     393.8027       0.0000       0.1485       0.0000         4419       0.0000
          50       0.0000       7.5095       0.1493       0.9500       0.4999       0.3018       0.9013     401.8121       0.0000       0.1495       0.0000         4419       0.0000

Process finished with exit code 0

